Loading Personalis data • PersonalisIO
…
It is possible to retrieve this data frame for a single chain and
patient:

tcr["TRA", "sample1"] |>
  as_tibble() |>
  select(-Clonal.Sequence)
#> # A tibble: 90 × 10
#>    group group_name Clone.Count Clone.Frequency Top.V.Hits       Top.J.Hits
#>    <int> <chr>            <dbl>           <dbl> <chr>            <chr>     
#>  1     1 NA                 193          0.0554 TRAV8-6, TRAV8-4 TRAJ5     
#>  2     1 NA                 193          0.0554 TRAV26-1         TRAJ44    
#>  3     1 NA                 158          0.0453 TRAV22           TRAJ28    
#>  4     1 NA                 138          0.0396 TRAV6            TRAJ41    
#>  5     1 NA                 137          0.0393 TRDV1            TRAJ23    
#>  6     1 NA                 136          0.0390 TRAV17           TRAJ12    
#>  7     1 NA                 130          0.0373 TRAV13-1         TRAJ12    
#>  8     1 NA                 129          0.0370 TRAV19           TRAJ13    
#>  9     1 NA                 121          0.0347 TRAV13-1         TRAJ57    
#> 10     1 NA                 118          0.0339 TRAV21           TRAJ12    
#> # ℹ 80 more rows
#> # ℹ 4 more variables: CDR3.Amino.Acid.Sequence <chr>, locus <chr>,
#> #   sample <chr>, Top.D.Hits <chr>
…
Finally, and arguably most useful for us, it is also possible to
convert the bumpy matrix back into a long-form data frame. Here, the
column and rownames are added as additional columns to the data
frame:

BumpyMatrix::unsplitAsDataFrame(tcr) |>
  as_tibble() |>
  select(-Clonal.Sequence)
#> # A tibble: 4,266 × 10
#>    row   column  Clone.Count Clone.Frequency Top.V.Hits       Top.J.Hits
#>    <chr> <chr>         <dbl>           <dbl> <chr>            <chr>     
#>  1 TRA   sample1         193          0.0554 TRAV8-6, TRAV8-4 TRAJ5     
#>  2 TRA   sample1         193          0.0554 TRAV26-1         TRAJ44    
#>  3 TRA   sample1         158          0.0453 TRAV22           TRAJ28    
#>  4 TRA   sample1         138          0.0396 TRAV6            TRAJ41    
#>  5 TRA   sample1         137          0.0393 TRDV1            TRAJ23    
#>  6 TRA   sample1         136          0.0390 TRAV17           TRAJ12    
#>  7 TRA   sample1         130          0.0373 TRAV13-1         TRAJ12    
#>  8 TRA   sample1         129          0.0370 TRAV19           TRAJ13    
#>  9 TRA   sample1         121          0.0347 TRAV13-1         TRAJ57    
#> 10 TRA   sample1         118          0.0339 TRAV21           TRAJ12    
#> # ℹ 4,256 more rows
#> # ℹ 4 more variables: CDR3.Amino.Acid.Sequence <chr>, locus <chr>,
#> #   sample <chr>, Top.D.Hits <chr>
…
